<?xml version="1.0" encoding="utf-8"?>
<!-- Generator: Adobe Illustrator 22.1.0, SVG Export Plug-In . SVG Version: 6.00 Build 0)  -->
<svg version="1.1" id="Layer_1" xmlns="http://www.w3.org/2000/svg" xmlns:xlink="http://www.w3.org/1999/xlink" x="0px" y="0px"
	 viewBox="0 0 283.3 79" style="enable-background:new 0 0 283.3 79;" xml:space="preserve">
<style type="text/css">
	.st0{fill:#EC6E05;}
	.st1{fill:#5D4037;}
	.st2{fill:#FFFFFF;}
</style>
<g>
	<ellipse transform="matrix(0.4753 -0.8798 0.8798 0.4753 -17.7511 48.954)" class="st0" cx="32.2" cy="39.4" rx="37.7" ry="22.9"/>
	<g>
		<path class="st0" d="M81.6,67.4h4.3c0,0.1,0,0.2,0.1,0.4c0,0.2,0,0.3,0,0.4c0,0.6-0.1,1.2-0.3,1.6c-0.2,0.5-0.4,0.9-0.8,1.3
			c-0.4,0.4-0.9,0.7-1.4,1c-0.5,0.2-1.2,0.3-1.9,0.3c-0.6,0-1.2-0.1-1.8-0.3s-1-0.5-1.5-0.9c-0.4-0.4-0.7-0.9-1-1.4
			c-0.2-0.6-0.4-1.2-0.4-1.8c0-0.7,0.1-1.3,0.4-1.8c0.2-0.6,0.6-1,1-1.4c0.4-0.4,0.9-0.7,1.5-0.9c0.6-0.2,1.2-0.3,1.8-0.3
			c0.7,0,1.4,0.1,1.9,0.4c0.5,0.3,1,0.6,1.4,1L83.7,66c-0.3-0.3-0.6-0.5-0.9-0.6c-0.3-0.1-0.7-0.2-1.2-0.2c-0.4,0-0.7,0.1-1,0.2
			c-0.3,0.1-0.6,0.3-0.9,0.6c-0.2,0.2-0.4,0.5-0.6,0.9c-0.1,0.3-0.2,0.7-0.2,1.1c0,0.4,0.1,0.8,0.2,1.1s0.3,0.6,0.6,0.9
			c0.2,0.2,0.5,0.4,0.9,0.6c0.3,0.1,0.7,0.2,1.1,0.2c0.7,0,1.3-0.2,1.8-0.6c0.1-0.1,0.3-0.3,0.4-0.5c0.1-0.2,0.2-0.4,0.3-0.6h-2.5
			V67.4z"/>
		<path class="st0" d="M93.2,63.6h3.3c0.5,0,0.9,0.1,1.3,0.2c0.4,0.1,0.7,0.3,0.9,0.6c0.3,0.2,0.4,0.5,0.6,0.9
			c0.1,0.3,0.2,0.7,0.2,1.1c0,0.3,0,0.5-0.1,0.8c-0.1,0.2-0.2,0.5-0.4,0.7c-0.2,0.2-0.3,0.4-0.5,0.5c-0.2,0.2-0.4,0.3-0.7,0.4v0.1
			l2.3,3.2v0.1h-2.1l-2.2-3.1h-0.5v3.1h-1.9V63.6z M96.5,67.3c0.3,0,0.6-0.1,0.8-0.3c0.2-0.2,0.3-0.4,0.3-0.7c0-0.3-0.1-0.5-0.3-0.7
			c-0.2-0.2-0.5-0.3-0.8-0.3h-1.4v2.1H96.5z"/>
		<path class="st0" d="M111.8,72.4c-0.7,0-1.3-0.1-1.8-0.3c-0.6-0.2-1-0.6-1.4-1c-0.4-0.4-0.7-0.9-1-1.4c-0.2-0.5-0.3-1.1-0.3-1.8
			c0-0.6,0.1-1.2,0.3-1.8c0.2-0.5,0.5-1,1-1.4c0.4-0.4,0.9-0.7,1.4-1c0.6-0.2,1.2-0.4,1.8-0.4c0.7,0,1.3,0.1,1.8,0.4
			c0.6,0.2,1,0.6,1.4,1c0.4,0.4,0.7,0.9,1,1.4c0.2,0.5,0.3,1.1,0.3,1.8c0,0.6-0.1,1.2-0.3,1.8c-0.2,0.5-0.5,1-1,1.4
			c-0.4,0.4-0.9,0.7-1.4,1C113.1,72.3,112.5,72.4,111.8,72.4z M111.8,70.6c0.4,0,0.7-0.1,1-0.2c0.3-0.1,0.6-0.3,0.9-0.6
			c0.2-0.2,0.4-0.5,0.6-0.9c0.1-0.3,0.2-0.7,0.2-1.1c0-0.4-0.1-0.8-0.2-1.1c-0.1-0.3-0.3-0.6-0.6-0.9c-0.2-0.2-0.5-0.4-0.9-0.6
			c-0.3-0.1-0.7-0.2-1-0.2c-0.4,0-0.7,0.1-1.1,0.2c-0.3,0.1-0.6,0.3-0.8,0.6c-0.2,0.2-0.4,0.5-0.6,0.9c-0.1,0.3-0.2,0.7-0.2,1.1
			c0,0.4,0.1,0.8,0.2,1.1s0.3,0.6,0.6,0.9c0.2,0.2,0.5,0.4,0.8,0.6C111.1,70.5,111.4,70.6,111.8,70.6z"/>
		<path class="st0" d="M123.7,63.6h2l1.2,4.5l0.2,1h0.1l0.3-1l1.1-3.4h1.8l1.1,3.4l0.2,1h0.1l0.2-1l1.1-4.5h2l-2.3,8.6h-1.8
			l-1.2-3.8l-0.3-1h-0.1l-0.3,1l-1.2,3.8h-1.8L123.7,63.6z"/>
		<path class="st0" d="M153.6,72.2v-6.9h-2.4v-1.8h6.7v1.8h-2.4v6.9H153.6z"/>
		<path class="st0" d="M169.7,72.4c-0.7,0-1.3-0.1-1.8-0.3c-0.6-0.2-1-0.6-1.4-1c-0.4-0.4-0.7-0.9-1-1.4c-0.2-0.5-0.3-1.1-0.3-1.8
			c0-0.6,0.1-1.2,0.3-1.8c0.2-0.5,0.5-1,1-1.4c0.4-0.4,0.9-0.7,1.4-1c0.6-0.2,1.2-0.4,1.8-0.4c0.7,0,1.3,0.1,1.8,0.4
			c0.6,0.2,1,0.6,1.4,1c0.4,0.4,0.7,0.9,1,1.4c0.2,0.5,0.3,1.1,0.3,1.8c0,0.6-0.1,1.2-0.3,1.8c-0.2,0.5-0.5,1-1,1.4
			c-0.4,0.4-0.9,0.7-1.4,1C171,72.3,170.4,72.4,169.7,72.4z M169.7,70.6c0.4,0,0.7-0.1,1-0.2c0.3-0.1,0.6-0.3,0.9-0.6
			c0.2-0.2,0.4-0.5,0.6-0.9c0.1-0.3,0.2-0.7,0.2-1.1c0-0.4-0.1-0.8-0.2-1.1c-0.1-0.3-0.3-0.6-0.6-0.9c-0.2-0.2-0.5-0.4-0.9-0.6
			c-0.3-0.1-0.7-0.2-1-0.2c-0.4,0-0.7,0.1-1.1,0.2c-0.3,0.1-0.6,0.3-0.8,0.6c-0.2,0.2-0.4,0.5-0.6,0.9c-0.1,0.3-0.2,0.7-0.2,1.1
			c0,0.4,0.1,0.8,0.2,1.1c0.1,0.3,0.3,0.6,0.6,0.9c0.2,0.2,0.5,0.4,0.8,0.6C169,70.5,169.4,70.6,169.7,70.6z"/>
		<path class="st0" d="M186.1,67.4h4.3c0,0.1,0,0.2,0.1,0.4c0,0.2,0,0.3,0,0.4c0,0.6-0.1,1.2-0.3,1.6c-0.2,0.5-0.4,0.9-0.8,1.3
			c-0.4,0.4-0.9,0.7-1.4,1c-0.5,0.2-1.2,0.3-1.9,0.3c-0.6,0-1.2-0.1-1.8-0.3c-0.6-0.2-1-0.5-1.5-0.9c-0.4-0.4-0.7-0.9-1-1.4
			c-0.2-0.6-0.4-1.2-0.4-1.8c0-0.7,0.1-1.3,0.4-1.8c0.2-0.6,0.6-1,1-1.4c0.4-0.4,0.9-0.7,1.5-0.9c0.6-0.2,1.2-0.3,1.8-0.3
			c0.7,0,1.4,0.1,1.9,0.4c0.5,0.3,1,0.6,1.4,1l-1.3,1.3c-0.3-0.3-0.6-0.5-0.9-0.6c-0.3-0.1-0.7-0.2-1.2-0.2c-0.4,0-0.7,0.1-1,0.2
			c-0.3,0.1-0.6,0.3-0.9,0.6c-0.2,0.2-0.4,0.5-0.6,0.9c-0.1,0.3-0.2,0.7-0.2,1.1c0,0.4,0.1,0.8,0.2,1.1s0.3,0.6,0.6,0.9
			c0.2,0.2,0.5,0.4,0.9,0.6c0.3,0.1,0.7,0.2,1.1,0.2c0.7,0,1.3-0.2,1.8-0.6c0.1-0.1,0.3-0.3,0.4-0.5c0.1-0.2,0.2-0.4,0.3-0.6h-2.5
			V67.4z"/>
		<path class="st0" d="M199.7,65.3V67h3.4v1.8h-3.4v1.6h3.8v1.8h-5.7v-8.6h5.7v1.8H199.7z"/>
		<path class="st0" d="M213.2,72.2v-6.9h-2.4v-1.8h6.7v1.8h-2.4v6.9H213.2z"/>
		<path class="st0" d="M224.8,63.6h1.9v3.3h3.3v-3.3h1.9v8.6H230v-3.5h-3.3v3.5h-1.9V63.6z"/>
		<path class="st0" d="M241.1,65.3V67h3.4v1.8h-3.4v1.6h3.8v1.8h-5.7v-8.6h5.7v1.8H241.1z"/>
		<path class="st0" d="M252.2,63.6h3.3c0.5,0,0.9,0.1,1.3,0.2c0.4,0.1,0.7,0.3,0.9,0.6c0.3,0.2,0.4,0.5,0.6,0.9
			c0.1,0.3,0.2,0.7,0.2,1.1c0,0.3,0,0.5-0.1,0.8c-0.1,0.2-0.2,0.5-0.4,0.7c-0.2,0.2-0.3,0.4-0.5,0.5c-0.2,0.2-0.4,0.3-0.7,0.4v0.1
			l2.3,3.2v0.1h-2.1l-2.2-3.1h-0.5v3.1h-1.9V63.6z M255.5,67.3c0.3,0,0.6-0.1,0.8-0.3c0.2-0.2,0.3-0.4,0.3-0.7
			c0-0.3-0.1-0.5-0.3-0.7c-0.2-0.2-0.5-0.3-0.8-0.3h-1.4v2.1H255.5z"/>
	</g>
	<path class="st1" d="M62.6,49.1v-3.4h-0.8c-1,0-1.8-0.3-2.5-1.1c-0.3-0.3-0.6-0.7-0.7-1.1c-0.2-0.4-0.3-0.9-0.3-1.4
		c0-0.5,0.1-0.9,0.3-1.3c0.2-0.4,0.4-0.8,0.7-1.1c0.7-0.7,1.5-1,2.5-1h0.8v-6.9c0-1.2,0.3-2.3,0.7-3.4c0.5-1.1,1.1-2.1,2-2.9
		c0.8-0.8,1.8-1.5,2.9-1.9c1.1-0.5,2.2-0.7,3.5-0.7c0.5,0,0.9,0.1,1.4,0.3c0.4,0.2,0.8,0.4,1.2,0.7c0.3,0.3,0.6,0.7,0.7,1.1
		s0.3,0.9,0.3,1.4c0,0.5-0.1,0.9-0.3,1.3c-0.2,0.4-0.4,0.8-0.7,1.1c-0.3,0.3-0.7,0.6-1.2,0.7c-0.4,0.2-0.9,0.3-1.4,0.3h-0.1
		c-0.5,0-1,0.2-1.4,0.6c-0.4,0.4-0.6,0.8-0.6,1.3v6.9h1.6c0.5,0,0.9,0.1,1.4,0.3c0.4,0.2,0.8,0.4,1.1,0.7c0.3,0.3,0.6,0.7,0.7,1.1
		c0.2,0.4,0.3,0.9,0.3,1.3c0,0.5-0.1,0.9-0.3,1.4c-0.2,0.4-0.4,0.8-0.7,1.1c-0.3,0.3-0.7,0.6-1.1,0.7s-0.9,0.3-1.4,0.3h-1.6v11V49"
		/>
	<path class="st1" d="M79.4,57.3c-0.4-0.2-0.8-0.4-1.1-0.7c-0.3-0.3-0.6-0.7-0.8-1.1c-0.2-0.4-0.3-0.9-0.3-1.3v-8.8
		c0.1-1.8,0.4-3.4,1.1-5c0.7-1.6,1.7-3,2.9-4.2c1.2-1.2,2.6-2.1,4.2-2.8s3.3-1,5-1.1h0.2c1.1,0,2,0.3,2.7,1c0.6,0.6,1,1.5,1,2.5
		c0,1-0.4,1.8-1.1,2.5c-0.3,0.3-0.7,0.6-1.2,0.7c-0.4,0.2-0.9,0.3-1.4,0.3h-0.2c-0.9,0-1.7,0.2-2.4,0.5c-0.8,0.3-1.4,0.8-2,1.4
		c-0.6,0.6-1.1,1.3-1.4,2c-0.3,0.8-0.5,1.6-0.5,2.4v8.5c0,0.5-0.1,0.9-0.3,1.4c-0.2,0.4-0.4,0.8-0.7,1.1c-0.7,0.7-1.5,1-2.4,1
		C80.3,57.5,79.8,57.4,79.4,57.3z"/>
	<path class="st1" d="M98.4,28.9c-0.4-0.3-0.6-0.8-0.8-1.2c-0.2-0.5-0.3-0.9-0.3-1.4c0-1,0.4-1.9,1.1-2.7c0.7-0.7,1.6-1.1,2.6-1.1
		c0.5,0,1,0.1,1.4,0.3c0.5,0.2,0.9,0.5,1.2,0.8c0.7,0.7,1.1,1.6,1.1,2.7c0,1-0.4,1.9-1.1,2.6c-0.4,0.4-0.8,0.6-1.2,0.8
		c-0.5,0.2-0.9,0.3-1.4,0.3C100.1,30,99.2,29.7,98.4,28.9z M99.7,57.5c-0.4-0.2-0.8-0.4-1.1-0.7c-0.3-0.3-0.6-0.7-0.8-1.1
		c-0.2-0.4-0.3-0.9-0.3-1.3V35.6c0-0.5,0.1-0.9,0.3-1.3c0.2-0.4,0.5-0.8,0.8-1.1c0.3-0.3,0.7-0.6,1.1-0.7c0.4-0.2,0.9-0.3,1.4-0.3
		c0.5,0,0.9,0.1,1.3,0.3c0.4,0.2,0.8,0.4,1.1,0.7c0.3,0.3,0.6,0.7,0.7,1.1c0.2,0.4,0.3,0.9,0.3,1.3v18.7c0,0.5-0.1,0.9-0.3,1.3
		c-0.2,0.4-0.4,0.8-0.7,1.1c-0.3,0.3-0.7,0.6-1.1,0.7c-0.4,0.2-0.9,0.3-1.3,0.3S100.1,57.7,99.7,57.5z"/>
	<path class="st1" d="M111.4,57.3c-0.4-0.2-0.8-0.4-1.1-0.7c-0.3-0.3-0.6-0.7-0.8-1.1s-0.3-0.9-0.3-1.3V26.5c0-0.9,0.4-1.7,1.1-2.4
		c0.3-0.3,0.7-0.6,1.1-0.7c0.4-0.2,0.9-0.3,1.4-0.3c1,0,1.8,0.3,2.5,1c0.6,0.7,1,1.5,1,2.4l0,14l7.7-7c0.7-0.6,1.4-0.9,2.3-0.9
		c0.5,0,0.9,0.1,1.4,0.3c0.4,0.2,0.8,0.4,1.1,0.7c0.3,0.4,0.6,0.7,0.8,1.2c0.2,0.4,0.3,0.9,0.3,1.4c0,0.5-0.1,0.9-0.3,1.3
		c-0.2,0.4-0.5,0.8-0.8,1.1l-6.4,5.9l7.9,7.2c0.6,0.6,0.9,1.3,0.9,2.2c0,0.5-0.1,0.9-0.3,1.4c-0.2,0.4-0.4,0.8-0.7,1.2
		c-0.7,0.8-1.5,1.1-2.4,1.1c-1,0-1.8-0.4-2.6-1.1l-8.9-8.1v5.8c0,0.5-0.1,0.9-0.3,1.3c-0.2,0.4-0.4,0.8-0.7,1.1
		c-0.7,0.7-1.5,1-2.4,1C112.3,57.5,111.8,57.4,111.4,57.3z"/>
	<path class="st1" d="M141.4,56.8c-1.6-0.7-2.9-1.6-4.1-2.8c-1.2-1.2-2.1-2.5-2.8-4.1c-0.7-1.6-1-3.2-1-4.9c0-1.7,0.3-3.4,1-5
		c0.7-1.6,1.6-2.9,2.8-4.1c1.2-1.2,2.6-2.1,4.1-2.8c1.6-0.7,3.2-1,4.9-1c1.7,0,3.4,0.3,4.9,1c1.6,0.6,2.9,1.6,4.1,2.7
		c1.2,1.2,2.1,2.5,2.8,4c0.7,1.5,1,3.2,1.1,4.9v9.4c0,1-0.3,1.8-1,2.5c-0.3,0.3-0.7,0.6-1.2,0.8c-0.4,0.2-0.9,0.3-1.4,0.3
		c-0.6,0-1.2-0.1-1.7-0.4s-0.9-0.7-1.2-1.2c-2,1.1-4.1,1.7-6.3,1.7C144.6,57.8,143,57.5,141.4,56.8z M148.6,50.3
		c0.7-0.3,1.3-0.7,1.9-1.2c0.5-0.5,1-1.2,1.3-1.9c0.3-0.7,0.4-1.4,0.4-2.2c0-0.8-0.1-1.5-0.4-2.2c-0.3-0.7-0.7-1.3-1.3-1.9
		c-0.5-0.5-1.1-0.9-1.9-1.2c-0.7-0.3-1.5-0.4-2.3-0.4c-0.8,0-1.5,0.1-2.2,0.4c-0.7,0.3-1.3,0.7-1.9,1.2c-0.5,0.5-1,1.2-1.3,1.9
		c-0.3,0.7-0.5,1.4-0.5,2.2c0,0.8,0.2,1.5,0.5,2.2c0.3,0.7,0.7,1.3,1.3,1.9c0.5,0.5,1.1,0.9,1.9,1.2c0.7,0.3,1.4,0.4,2.2,0.4
		C147.1,50.8,147.9,50.6,148.6,50.3z"/>
	<path class="st2" d="M30,58.7c-2.1-0.9-4-2.2-5.7-3.8c-1.6-1.6-2.9-3.5-3.8-5.6c-0.9-2.1-1.4-4.4-1.4-6.8c0-2.4,0.5-4.7,1.4-6.8
		c0.9-2.2,2.2-4.1,3.8-5.7c1.6-1.6,3.5-2.9,5.7-3.8c2.1-0.9,4.4-1.4,6.8-1.4c2.4,0,4.6,0.4,6.7,1.3c2.1,0.9,4,2.1,5.6,3.8
		c1.6,1.6,2.9,3.4,3.8,5.6c0.9,2.1,1.4,4.4,1.5,6.7v13c0,1.4-0.5,2.5-1.4,3.5c-0.5,0.5-1,0.8-1.6,1.1c-0.6,0.3-1.2,0.4-1.9,0.4
		c-0.9,0-1.7-0.2-2.4-0.6c-0.7-0.4-1.2-1-1.7-1.7c-2.7,1.5-5.6,2.3-8.7,2.3C34.4,60,32.1,59.6,30,58.7z M39.8,49.8
		c1-0.4,1.8-1,2.6-1.7c0.7-0.7,1.3-1.6,1.7-2.6c0.4-1,0.6-2,0.6-3.1c0-1.1-0.2-2.1-0.6-3.1c-0.4-1-1-1.8-1.7-2.6
		c-0.7-0.7-1.6-1.3-2.6-1.7s-2-0.6-3.1-0.6c-1.1,0-2.1,0.2-3.1,0.6c-1,0.4-1.8,1-2.5,1.7c-0.7,0.7-1.3,1.6-1.8,2.6
		c-0.4,1-0.6,2-0.6,3.1c0,1.1,0.2,2.1,0.6,3.1c0.4,1,1,1.8,1.8,2.6c0.7,0.7,1.6,1.3,2.5,1.7c1,0.4,2,0.6,3.1,0.6
		C37.8,50.4,38.9,50.2,39.8,49.8z"/>
	<path class="st0" d="M164.3,43.7c-0.3-0.3-0.6-0.7-0.7-1.1c-0.2-0.4-0.3-0.9-0.3-1.4c0-0.5,0.1-0.9,0.3-1.4
		c0.2-0.4,0.4-0.8,0.7-1.2c0.7-0.7,1.5-1,2.5-1h7.2c0.5,0,0.9,0.1,1.4,0.3c0.4,0.2,0.8,0.4,1.1,0.8c0.3,0.3,0.6,0.7,0.7,1.2
		c0.2,0.4,0.3,0.9,0.3,1.4c0,0.5-0.1,0.9-0.3,1.4c-0.2,0.4-0.4,0.8-0.7,1.1c-0.3,0.3-0.7,0.6-1.1,0.7c-0.4,0.2-0.9,0.3-1.4,0.3h-7.2
		C165.8,44.8,165,44.4,164.3,43.7z"/>
	<path class="st1" d="M183.4,57.3c-0.4-0.2-0.8-0.4-1.1-0.7c-0.3-0.3-0.6-0.7-0.8-1.1c-0.2-0.4-0.3-0.9-0.3-1.3V26.5
		c0-0.9,0.4-1.7,1.1-2.4c0.3-0.3,0.7-0.6,1.1-0.7c0.4-0.2,0.9-0.3,1.4-0.3c1,0,1.8,0.3,2.5,1c0.6,0.7,1,1.5,1,2.4l0,14l7.7-7
		c0.7-0.6,1.4-0.9,2.3-0.9c0.5,0,0.9,0.1,1.4,0.3c0.4,0.2,0.8,0.4,1.1,0.7c0.3,0.4,0.6,0.7,0.8,1.2c0.2,0.4,0.3,0.9,0.3,1.4
		c0,0.5-0.1,0.9-0.3,1.3c-0.2,0.4-0.5,0.8-0.8,1.1l-6.4,5.9l7.9,7.2c0.6,0.6,0.9,1.3,0.9,2.2c0,0.5-0.1,0.9-0.3,1.4
		c-0.2,0.4-0.4,0.8-0.7,1.2c-0.7,0.8-1.5,1.1-2.4,1.1c-1,0-1.8-0.4-2.6-1.1l-8.9-8.1v5.8c0,0.5-0.1,0.9-0.3,1.3
		c-0.2,0.4-0.4,0.8-0.7,1.1c-0.7,0.7-1.5,1-2.4,1C184.3,57.5,183.9,57.4,183.4,57.3z"/>
	<path class="st1" d="M213.5,56.9c-1.1-0.4-2.1-1-2.9-1.7c-0.8-0.8-1.5-1.7-2-2.7c-0.5-1.1-0.7-2.2-0.7-3.4V26.6c0-1,0.3-1.8,1-2.5
		c0.6-0.7,1.4-1,2.4-1c0.5,0,0.9,0.1,1.4,0.3c0.4,0.2,0.8,0.4,1.2,0.7c0.3,0.3,0.6,0.7,0.8,1.1c0.2,0.4,0.3,0.9,0.3,1.3v22.6
		c0.1,1,0.8,1.5,2,1.5c0.5,0,1,0.1,1.4,0.3c0.4,0.2,0.8,0.4,1.1,0.7c0.3,0.3,0.6,0.7,0.7,1.1c0.2,0.4,0.3,0.9,0.3,1.3
		c0,0.5-0.1,0.9-0.3,1.3c-0.2,0.4-0.4,0.8-0.7,1.1c-0.3,0.3-0.7,0.5-1.1,0.7c-0.4,0.2-0.9,0.3-1.4,0.3
		C215.7,57.5,214.6,57.3,213.5,56.9z"/>
	<path class="st1" d="M231,56.8c-1.5-0.6-2.9-1.6-4-2.7c-1.2-1.2-2.1-2.5-2.7-4c-0.6-1.5-1-3.1-1-4.8v-9.7c0-0.5,0.1-0.9,0.3-1.3
		c0.2-0.4,0.4-0.8,0.7-1.1c0.3-0.3,0.7-0.6,1.1-0.7c0.4-0.2,0.9-0.3,1.3-0.3c0.5,0,0.9,0.1,1.4,0.3c0.4,0.2,0.8,0.4,1.1,0.7
		c0.3,0.3,0.6,0.7,0.7,1.1c0.2,0.4,0.3,0.9,0.3,1.3v9.8c0,0.8,0.1,1.5,0.4,2.1c0.3,0.7,0.7,1.2,1.2,1.7c0.5,0.5,1.1,0.9,1.8,1.1
		c0.7,0.3,1.4,0.4,2.2,0.4c0.8,0,1.4-0.1,2-0.4c0.6-0.3,1.1-0.7,1.6-1.2c0.4-0.5,0.7-1.1,1-1.7c0.2-0.7,0.3-1.4,0.3-2.2v-9.7
		c0-0.5,0.1-0.9,0.3-1.3s0.5-0.8,0.8-1.1c0.3-0.3,0.7-0.6,1.1-0.7c0.4-0.2,0.9-0.3,1.4-0.3c0.5,0,0.9,0.1,1.3,0.3
		c0.4,0.2,0.8,0.4,1.1,0.7c0.3,0.3,0.6,0.7,0.7,1.1c0.2,0.4,0.2,0.9,0.2,1.3v9.7c0,1.7-0.3,3.3-0.9,4.8c-0.6,1.5-1.4,2.8-2.5,4
		c-1.1,1.2-2.4,2.1-3.8,2.7c-1.5,0.6-3,1-4.7,1C234.2,57.8,232.6,57.5,231,56.8z"/>
	<path class="st1" d="M260.4,56.8c-1.6-0.7-2.9-1.6-4.1-2.8c-1.2-1.2-2.1-2.5-2.8-4.1c-0.7-1.6-1-3.2-1-4.9V26.4
		c0-0.5,0.1-1,0.3-1.4c0.2-0.4,0.4-0.8,0.7-1.2c0.3-0.3,0.7-0.6,1.1-0.7c0.4-0.2,0.9-0.3,1.4-0.3c0.5,0,0.9,0.1,1.4,0.3
		c0.4,0.2,0.8,0.4,1.1,0.7c0.3,0.3,0.6,0.7,0.7,1.2s0.3,0.9,0.3,1.4v8.1c0.5-0.6,1.4-1.2,2.6-1.7c1.1-0.5,2.2-0.7,3.3-0.7
		c1.7,0,3.4,0.3,4.9,1c1.6,0.7,2.9,1.6,4.1,2.8c1.2,1.2,2.1,2.6,2.8,4.1c0.7,1.6,1,3.2,1,5c0,1.7-0.3,3.4-1,4.9
		c-0.7,1.6-1.6,2.9-2.8,4.1c-1.2,1.2-2.5,2.1-4.1,2.8c-1.6,0.7-3.2,1-4.9,1C263.6,57.8,261.9,57.5,260.4,56.8z M267.5,50.3
		c0.7-0.3,1.3-0.7,1.9-1.2c0.5-0.5,1-1.2,1.3-1.9c0.3-0.7,0.4-1.4,0.4-2.2c0-0.8-0.1-1.5-0.4-2.2c-0.3-0.7-0.7-1.3-1.3-1.9
		c-0.5-0.5-1.1-0.9-1.9-1.2c-0.7-0.3-1.5-0.4-2.2-0.4s-1.5,0.1-2.2,0.4c-0.7,0.3-1.3,0.7-1.9,1.2c-0.5,0.5-1,1.2-1.3,1.9
		c-0.3,0.7-0.5,1.4-0.5,2.2c0,0.8,0.2,1.5,0.5,2.2c0.3,0.7,0.7,1.3,1.3,1.9c0.5,0.5,1.1,0.9,1.9,1.2c0.7,0.3,1.5,0.4,2.2,0.4
		S266.8,50.6,267.5,50.3z"/>
	<path class="st1" d="M69.6,45.5v8.5c0,0.5-0.1,0.9-0.3,1.4c-0.2,0.4-0.4,0.8-0.7,1.1c-0.7,0.7-1.5,1-2.4,1c-0.5,0-0.9-0.1-1.4-0.3
		s-0.8-0.4-1.1-0.7c-0.3-0.3-0.6-0.7-0.8-1.1c-0.2-0.4-0.3-0.9-0.3-1.3v-8.8"/>
</g>
</svg>
