<?xml version="1.0" encoding="utf-8"?>
<!-- Generator: Adobe Illustrator 22.1.0, SVG Export Plug-In . SVG Version: 6.00 Build 0)  -->
<svg version="1.1" id="Layer_1" xmlns="http://www.w3.org/2000/svg" xmlns:xlink="http://www.w3.org/1999/xlink" x="0px" y="0px"
	 viewBox="0 0 298.5 79" style="enable-background:new 0 0 298.5 79;" xml:space="preserve">
<style type="text/css">
	.st0{fill:#FFFFFF;}
	.st1{fill:#5D4037;}
</style>
<g>
	<g>
		<path class="st0" d="M87.1,67.1h4.5c0,0.1,0,0.2,0.1,0.4c0,0.2,0,0.3,0,0.5c0,0.6-0.1,1.2-0.3,1.7c-0.2,0.5-0.5,0.9-0.8,1.3
			c-0.4,0.4-0.9,0.8-1.5,1c-0.6,0.2-1.2,0.4-2,0.4c-0.7,0-1.3-0.1-1.9-0.4s-1.1-0.6-1.5-1c-0.4-0.4-0.8-0.9-1-1.5
			c-0.3-0.6-0.4-1.2-0.4-1.9c0-0.7,0.1-1.3,0.4-1.9c0.3-0.6,0.6-1.1,1-1.5c0.4-0.4,1-0.7,1.5-1c0.6-0.2,1.2-0.4,1.9-0.4
			c0.8,0,1.4,0.1,2,0.4c0.6,0.3,1.1,0.6,1.5,1.1l-1.3,1.3c-0.3-0.3-0.6-0.5-0.9-0.7c-0.3-0.2-0.7-0.2-1.2-0.2
			c-0.4,0-0.8,0.1-1.1,0.2c-0.3,0.1-0.6,0.3-0.9,0.6c-0.3,0.2-0.5,0.5-0.6,0.9c-0.1,0.4-0.2,0.7-0.2,1.2s0.1,0.8,0.2,1.2
			c0.1,0.3,0.4,0.6,0.6,0.9c0.3,0.2,0.6,0.4,0.9,0.6c0.3,0.1,0.7,0.2,1.1,0.2c0.8,0,1.4-0.2,1.9-0.6c0.1-0.1,0.3-0.3,0.4-0.5
			c0.1-0.2,0.2-0.4,0.3-0.6h-2.6V67.1z"/>
		<path class="st0" d="M99.3,63.1h3.4c0.5,0,0.9,0.1,1.3,0.2c0.4,0.1,0.7,0.4,1,0.6c0.3,0.3,0.5,0.6,0.6,0.9
			c0.1,0.4,0.2,0.7,0.2,1.2c0,0.3,0,0.6-0.1,0.8c-0.1,0.3-0.2,0.5-0.4,0.7c-0.2,0.2-0.4,0.4-0.6,0.6c-0.2,0.2-0.5,0.3-0.7,0.4v0.1
			l2.4,3.4v0.1h-2.3l-2.3-3.3h-0.6v3.3h-2V63.1z M102.7,67.1c0.4,0,0.6-0.1,0.8-0.3c0.2-0.2,0.3-0.5,0.3-0.8c0-0.3-0.1-0.6-0.3-0.8
			c-0.2-0.2-0.5-0.3-0.9-0.3h-1.4v2.1H102.7z"/>
		<path class="st0" d="M118.8,72.4c-0.7,0-1.3-0.1-1.9-0.4c-0.6-0.2-1.1-0.6-1.5-1c-0.4-0.4-0.8-0.9-1-1.5c-0.2-0.6-0.4-1.2-0.4-1.9
			s0.1-1.3,0.4-1.9c0.2-0.6,0.6-1.1,1-1.5c0.4-0.4,0.9-0.8,1.5-1c0.6-0.2,1.2-0.4,1.9-0.4c0.7,0,1.3,0.1,1.9,0.4
			c0.6,0.2,1.1,0.6,1.5,1c0.4,0.4,0.8,0.9,1,1.5c0.2,0.6,0.4,1.2,0.4,1.9s-0.1,1.3-0.4,1.9c-0.2,0.6-0.6,1.1-1,1.5
			c-0.4,0.4-0.9,0.8-1.5,1C120.1,72.2,119.5,72.4,118.8,72.4z M118.8,70.5c0.4,0,0.8-0.1,1.1-0.2c0.3-0.1,0.6-0.3,0.9-0.6
			c0.3-0.3,0.5-0.6,0.6-0.9c0.1-0.3,0.2-0.7,0.2-1.2s-0.1-0.8-0.2-1.2c-0.1-0.3-0.3-0.7-0.6-0.9s-0.5-0.4-0.9-0.6
			c-0.3-0.1-0.7-0.2-1.1-0.2c-0.4,0-0.8,0.1-1.1,0.2c-0.3,0.1-0.6,0.3-0.9,0.6s-0.5,0.6-0.6,0.9c-0.1,0.4-0.2,0.7-0.2,1.2
			s0.1,0.8,0.2,1.2c0.1,0.3,0.3,0.7,0.6,0.9c0.3,0.3,0.5,0.4,0.9,0.6C118,70.4,118.4,70.5,118.8,70.5z"/>
		<path class="st0" d="M131.2,63.1h2.1l1.3,4.7l0.2,1.1h0.1l0.3-1.1l1.1-3.5h1.8l1.1,3.5l0.3,1.1h0.1l0.2-1.1l1.2-4.7h2.1l-2.4,9.1
			h-1.9l-1.3-4l-0.3-1.1h-0.1l-0.3,1.1l-1.3,4h-1.9L131.2,63.1z"/>
		<path class="st0" d="M162.5,72.2V65H160v-1.9h7V65h-2.5v7.2H162.5z"/>
		<path class="st0" d="M179.4,72.4c-0.7,0-1.3-0.1-1.9-0.4c-0.6-0.2-1.1-0.6-1.5-1c-0.4-0.4-0.8-0.9-1-1.5c-0.2-0.6-0.4-1.2-0.4-1.9
			s0.1-1.3,0.4-1.9c0.2-0.6,0.6-1.1,1-1.5c0.4-0.4,0.9-0.8,1.5-1c0.6-0.2,1.2-0.4,1.9-0.4c0.7,0,1.3,0.1,1.9,0.4
			c0.6,0.2,1.1,0.6,1.5,1c0.4,0.4,0.8,0.9,1,1.5c0.2,0.6,0.4,1.2,0.4,1.9s-0.1,1.3-0.4,1.9c-0.2,0.6-0.6,1.1-1,1.5
			c-0.4,0.4-0.9,0.8-1.5,1C180.7,72.2,180.1,72.4,179.4,72.4z M179.4,70.5c0.4,0,0.8-0.1,1.1-0.2c0.3-0.1,0.6-0.3,0.9-0.6
			c0.3-0.3,0.5-0.6,0.6-0.9c0.1-0.3,0.2-0.7,0.2-1.2s-0.1-0.8-0.2-1.2c-0.1-0.3-0.3-0.7-0.6-0.9s-0.5-0.4-0.9-0.6
			c-0.3-0.1-0.7-0.2-1.1-0.2c-0.4,0-0.8,0.1-1.1,0.2c-0.3,0.1-0.6,0.3-0.9,0.6c-0.3,0.3-0.5,0.6-0.6,0.9c-0.1,0.4-0.2,0.7-0.2,1.2
			s0.1,0.8,0.2,1.2c0.1,0.3,0.3,0.7,0.6,0.9c0.3,0.3,0.5,0.4,0.9,0.6C178.6,70.4,179,70.5,179.4,70.5z"/>
		<path class="st0" d="M196.6,67.1h4.5c0,0.1,0,0.2,0.1,0.4c0,0.2,0,0.3,0,0.5c0,0.6-0.1,1.2-0.3,1.7c-0.2,0.5-0.5,0.9-0.8,1.3
			c-0.4,0.4-0.9,0.8-1.5,1c-0.6,0.2-1.2,0.4-2,0.4c-0.7,0-1.3-0.1-1.9-0.4c-0.6-0.2-1.1-0.6-1.5-1c-0.4-0.4-0.8-0.9-1-1.5
			c-0.3-0.6-0.4-1.2-0.4-1.9c0-0.7,0.1-1.3,0.4-1.9c0.3-0.6,0.6-1.1,1-1.5c0.4-0.4,1-0.7,1.5-1c0.6-0.2,1.2-0.4,1.9-0.4
			c0.8,0,1.4,0.1,2,0.4c0.6,0.3,1.1,0.6,1.5,1.1l-1.3,1.3c-0.3-0.3-0.6-0.5-0.9-0.7c-0.3-0.2-0.7-0.2-1.2-0.2
			c-0.4,0-0.8,0.1-1.1,0.2c-0.3,0.1-0.6,0.3-0.9,0.6c-0.3,0.2-0.5,0.5-0.6,0.9c-0.1,0.4-0.2,0.7-0.2,1.2s0.1,0.8,0.2,1.2
			c0.1,0.3,0.4,0.6,0.6,0.9c0.3,0.2,0.6,0.4,0.9,0.6c0.3,0.1,0.7,0.2,1.1,0.2c0.8,0,1.4-0.2,1.9-0.6c0.1-0.1,0.3-0.3,0.4-0.5
			c0.1-0.2,0.2-0.4,0.3-0.6h-2.6V67.1z"/>
		<path class="st0" d="M210.8,65v1.7h3.6v1.9h-3.6v1.7h4v1.9h-6v-9.1h6V65H210.8z"/>
		<path class="st0" d="M224.9,72.2V65h-2.5v-1.9h7V65h-2.5v7.2H224.9z"/>
		<path class="st0" d="M237.1,63.1h2v3.5h3.5v-3.5h2v9.1h-2v-3.7h-3.5v3.7h-2V63.1z"/>
		<path class="st0" d="M254.1,65v1.7h3.6v1.9h-3.6v1.7h4v1.9h-6v-9.1h6V65H254.1z"/>
		<path class="st0" d="M265.8,63.1h3.4c0.5,0,0.9,0.1,1.3,0.2c0.4,0.1,0.7,0.4,1,0.6c0.3,0.3,0.5,0.6,0.6,0.9
			c0.1,0.4,0.2,0.7,0.2,1.2c0,0.3,0,0.6-0.1,0.8c-0.1,0.3-0.2,0.5-0.4,0.7c-0.2,0.2-0.4,0.4-0.6,0.6c-0.2,0.2-0.5,0.3-0.7,0.4v0.1
			l2.4,3.4v0.1h-2.3l-2.3-3.3h-0.6v3.3h-2V63.1z M269.2,67.1c0.4,0,0.6-0.1,0.8-0.3c0.2-0.2,0.3-0.5,0.3-0.8c0-0.3-0.1-0.6-0.3-0.8
			c-0.2-0.2-0.5-0.3-0.9-0.3h-1.4v2.1H269.2z"/>
	</g>
	<path class="st0" d="M67.2,48v-3.6h-0.8c-1,0-1.9-0.4-2.6-1.1c-0.3-0.3-0.6-0.7-0.8-1.2c-0.2-0.4-0.3-0.9-0.3-1.4
		c0-0.5,0.1-1,0.3-1.4c0.2-0.4,0.5-0.8,0.8-1.2c0.7-0.7,1.6-1.1,2.6-1.1h0.8v-7.2c0-1.2,0.3-2.4,0.8-3.6c0.5-1.1,1.2-2.2,2.1-3
		c0.9-0.9,1.9-1.5,3-2c1.1-0.5,2.3-0.7,3.6-0.7c0.5,0,1,0.1,1.4,0.3c0.5,0.2,0.9,0.5,1.2,0.8c0.3,0.3,0.6,0.7,0.8,1.2
		s0.3,0.9,0.3,1.4c0,0.5-0.1,0.9-0.3,1.4c-0.2,0.4-0.5,0.8-0.8,1.2c-0.3,0.3-0.8,0.6-1.2,0.8c-0.5,0.2-0.9,0.3-1.4,0.3h-0.1
		c-0.6,0-1,0.2-1.4,0.6s-0.6,0.9-0.6,1.4v7.2h1.7c0.5,0,1,0.1,1.4,0.3c0.5,0.2,0.9,0.5,1.2,0.8s0.6,0.7,0.8,1.2
		c0.2,0.4,0.3,0.9,0.3,1.4c0,0.5-0.1,1-0.3,1.4c-0.2,0.5-0.5,0.9-0.8,1.2s-0.7,0.6-1.2,0.8c-0.5,0.2-0.9,0.3-1.4,0.3h-1.7v11.5v-8"
		/>
	<path class="st0" d="M84.8,56.5c-0.5-0.2-0.9-0.4-1.2-0.8c-0.3-0.3-0.6-0.7-0.8-1.2c-0.2-0.4-0.3-0.9-0.3-1.4v-9.2
		c0.1-1.8,0.5-3.6,1.2-5.2c0.7-1.7,1.8-3.1,3-4.4c1.3-1.2,2.7-2.2,4.4-2.9s3.4-1.1,5.3-1.1h0.2c1.2,0,2.1,0.3,2.8,1
		c0.7,0.7,1,1.5,1,2.6c0,1-0.4,1.9-1.1,2.6c-0.3,0.3-0.8,0.6-1.2,0.8c-0.5,0.2-1,0.3-1.5,0.3h-0.2c-0.9,0-1.7,0.2-2.5,0.5
		c-0.8,0.3-1.5,0.8-2.1,1.5c-0.6,0.6-1.1,1.3-1.5,2.1c-0.3,0.8-0.5,1.7-0.6,2.6v8.9c0,0.5-0.1,1-0.3,1.4c-0.2,0.4-0.4,0.8-0.8,1.1
		c-0.7,0.7-1.5,1-2.5,1C85.7,56.8,85.3,56.7,84.8,56.5z"/>
	<path class="st0" d="M104.8,26.9c-0.4-0.4-0.7-0.8-0.9-1.3c-0.2-0.5-0.3-1-0.3-1.5c0-1.1,0.4-2,1.2-2.8c0.8-0.8,1.7-1.1,2.8-1.1
		c0.5,0,1,0.1,1.5,0.3c0.5,0.2,0.9,0.5,1.3,0.8c0.8,0.8,1.2,1.7,1.2,2.8c0,1.1-0.4,2-1.2,2.8c-0.4,0.4-0.8,0.7-1.3,0.9
		c-0.5,0.2-1,0.3-1.5,0.3C106.5,28,105.5,27.6,104.8,26.9z M106.1,56.8c-0.4-0.2-0.8-0.5-1.2-0.8c-0.3-0.3-0.6-0.7-0.8-1.2
		c-0.2-0.4-0.3-0.9-0.3-1.4V33.9c0-0.5,0.1-0.9,0.3-1.4c0.2-0.4,0.5-0.8,0.8-1.2c0.3-0.3,0.7-0.6,1.2-0.8c0.5-0.2,0.9-0.3,1.4-0.3
		c0.5,0,0.9,0.1,1.4,0.3c0.4,0.2,0.8,0.5,1.2,0.8s0.6,0.7,0.8,1.2c0.2,0.4,0.3,0.9,0.3,1.4v19.6c0,0.5-0.1,0.9-0.3,1.4
		c-0.2,0.4-0.5,0.8-0.8,1.2s-0.7,0.6-1.2,0.8c-0.4,0.2-0.9,0.3-1.4,0.3C107,57.1,106.6,57,106.1,56.8z"/>
	<path class="st0" d="M118.3,56.5c-0.4-0.2-0.8-0.4-1.2-0.8c-0.3-0.3-0.6-0.7-0.8-1.2c-0.2-0.4-0.3-0.9-0.3-1.4V24.3
		c0-1,0.4-1.8,1.1-2.5c0.3-0.3,0.7-0.6,1.2-0.8c0.4-0.2,0.9-0.3,1.4-0.3c1,0,1.9,0.3,2.6,1c0.7,0.7,1,1.6,1,2.5l0,14.7l8-7.4
		c0.7-0.6,1.5-1,2.4-1c0.5,0,1,0.1,1.4,0.3c0.4,0.2,0.8,0.5,1.2,0.8c0.3,0.4,0.6,0.8,0.8,1.2c0.2,0.4,0.3,0.9,0.3,1.4
		c0,0.5-0.1,0.9-0.3,1.4c-0.2,0.4-0.5,0.8-0.9,1.2l-6.7,6.1l8.3,7.5c0.7,0.6,1,1.4,1,2.3c0,0.5-0.1,1-0.3,1.4
		c-0.2,0.5-0.5,0.9-0.8,1.2c-0.7,0.8-1.6,1.2-2.5,1.2c-1,0-1.9-0.4-2.7-1.1l-9.3-8.5v6.1c0,0.5-0.1,1-0.3,1.4
		c-0.2,0.4-0.4,0.8-0.8,1.1c-0.7,0.7-1.5,1-2.5,1C119.2,56.8,118.8,56.7,118.3,56.5z"/>
	<path class="st0" d="M149.7,56.1c-1.6-0.7-3.1-1.7-4.3-2.9c-1.2-1.2-2.2-2.7-2.9-4.3c-0.7-1.6-1-3.4-1-5.2c0-1.8,0.3-3.5,1-5.2
		c0.7-1.6,1.7-3.1,2.9-4.3c1.2-1.2,2.7-2.2,4.3-2.9c1.6-0.7,3.3-1,5.2-1c1.8,0,3.5,0.3,5.1,1c1.6,0.7,3,1.6,4.3,2.9
		c1.2,1.2,2.2,2.6,2.9,4.2c0.7,1.6,1.1,3.3,1.1,5.1v9.9c0,1-0.4,1.9-1.1,2.6c-0.3,0.3-0.8,0.6-1.2,0.8c-0.5,0.2-0.9,0.3-1.5,0.3
		c-0.7,0-1.3-0.2-1.8-0.5c-0.5-0.3-0.9-0.7-1.3-1.3c-2.1,1.2-4.3,1.7-6.6,1.7C153.1,57.1,151.4,56.8,149.7,56.1z M157.3,49.3
		c0.8-0.3,1.4-0.7,2-1.3c0.6-0.6,1-1.2,1.3-2c0.3-0.7,0.5-1.5,0.5-2.3c0-0.8-0.2-1.6-0.5-2.3c-0.3-0.7-0.8-1.4-1.3-2
		c-0.6-0.6-1.2-1-2-1.3c-0.8-0.3-1.5-0.5-2.4-0.5c-0.8,0-1.6,0.2-2.3,0.5c-0.7,0.3-1.4,0.7-1.9,1.3c-0.6,0.6-1,1.2-1.3,2
		c-0.3,0.7-0.5,1.5-0.5,2.3c0,0.8,0.2,1.6,0.5,2.3c0.3,0.7,0.8,1.4,1.3,2c0.6,0.6,1.2,1,1.9,1.3c0.7,0.3,1.5,0.5,2.3,0.5
		C155.7,49.8,156.5,49.6,157.3,49.3z"/>
	<g>
		<path class="st1" d="M51,56.5c-0.7-0.4-1.3-1-1.8-1.8c-2.8,1.6-5.9,2.4-9.1,2.4c-2.5,0-4.9-0.5-7.1-1.4c-2.2-0.9-4.2-2.3-5.9-4
			c-1.7-1.7-3.1-3.7-4-5.9c-1-2.2-1.4-4.6-1.4-7.1c0-2.5,0.5-4.9,1.4-7.1c1-2.3,2.3-4.2,4-6c1.7-1.7,3.7-3,5.9-4
			c2.2-0.9,4.6-1.4,7.1-1.4c2.5,0,4.8,0.5,7.1,1.4s4.2,2.2,5.9,3.9c1.7,1.7,3,3.6,4,5.8c1,2.2,1.5,4.6,1.5,7v7.1
			c7.6-16.4,6.6-32.9-3.2-39.1C44.2-0.7,25.8,8.5,14.2,27C2.6,45.4,2.2,66.1,13.5,73.1c10.3,6.5,26.7-0.8,38.3-16.3
			C51.5,56.7,51.3,56.6,51,56.5z"/>
		<path class="st1" d="M43.4,31c-1-0.4-2.1-0.6-3.3-0.6c-1.1,0-2.2,0.2-3.2,0.6c-1,0.4-1.9,1-2.7,1.8c-0.8,0.8-1.4,1.7-1.8,2.7
			c-0.4,1-0.7,2.1-0.7,3.2c0,1.1,0.2,2.2,0.7,3.2c0.4,1,1.1,1.9,1.8,2.7c0.8,0.8,1.6,1.3,2.7,1.8c1,0.4,2.1,0.6,3.2,0.6
			c1.1,0,2.2-0.2,3.3-0.6c1-0.4,1.9-1,2.7-1.8c0.8-0.8,1.4-1.7,1.8-2.7c0.4-1,0.6-2.1,0.6-3.2c0-1.1-0.2-2.2-0.6-3.2
			c-0.4-1-1-1.9-1.8-2.7C45.4,32,44.5,31.4,43.4,31z"/>
	</g>
	<path class="st0" d="M173.7,42.4c-0.3-0.3-0.6-0.7-0.8-1.2c-0.2-0.4-0.3-0.9-0.3-1.4c0-0.5,0.1-1,0.3-1.4c0.2-0.5,0.5-0.9,0.8-1.2
		c0.7-0.7,1.6-1.1,2.6-1.1h7.6c0.5,0,1,0.1,1.4,0.3c0.5,0.2,0.9,0.5,1.2,0.8c0.3,0.3,0.6,0.8,0.8,1.2c0.2,0.5,0.3,0.9,0.3,1.4
		c0,0.5-0.1,1-0.3,1.4c-0.2,0.4-0.5,0.8-0.8,1.2c-0.3,0.3-0.7,0.6-1.2,0.8c-0.5,0.2-0.9,0.3-1.4,0.3h-7.6
		C175.3,43.5,174.4,43.1,173.7,42.4z"/>
	<path class="st0" d="M193.8,56.5c-0.4-0.2-0.8-0.4-1.2-0.8c-0.3-0.3-0.6-0.7-0.8-1.2c-0.2-0.4-0.3-0.9-0.3-1.4V24.3
		c0-1,0.4-1.8,1.1-2.5c0.3-0.3,0.7-0.6,1.2-0.8c0.4-0.2,0.9-0.3,1.4-0.3c1,0,1.9,0.3,2.6,1c0.7,0.7,1,1.6,1,2.5l0,14.7l8-7.4
		c0.7-0.6,1.5-1,2.4-1c0.5,0,1,0.1,1.4,0.3c0.4,0.2,0.8,0.5,1.2,0.8c0.3,0.4,0.6,0.8,0.8,1.2c0.2,0.4,0.3,0.9,0.3,1.4
		c0,0.5-0.1,0.9-0.3,1.4c-0.2,0.4-0.5,0.8-0.9,1.2l-6.7,6.1l8.3,7.5c0.7,0.6,1,1.4,1,2.3c0,0.5-0.1,1-0.3,1.4
		c-0.2,0.5-0.5,0.9-0.8,1.2c-0.7,0.8-1.6,1.2-2.5,1.2c-1,0-1.9-0.4-2.7-1.1l-9.3-8.5v6.1c0,0.5-0.1,1-0.3,1.4
		c-0.2,0.4-0.4,0.8-0.8,1.1c-0.7,0.7-1.5,1-2.5,1C194.7,56.8,194.2,56.7,193.8,56.5z"/>
	<path class="st0" d="M225.2,56.1c-1.1-0.4-2.2-1-3-1.8c-0.9-0.8-1.6-1.8-2.1-2.9c-0.5-1.1-0.7-2.3-0.7-3.6V24.4c0-1,0.3-1.9,1-2.6
		c0.7-0.7,1.5-1.1,2.5-1.1c0.5,0,1,0.1,1.4,0.3c0.5,0.2,0.9,0.5,1.2,0.8c0.3,0.3,0.6,0.7,0.8,1.2c0.2,0.4,0.3,0.9,0.3,1.4V48
		c0.1,1,0.8,1.6,2.1,1.6c0.5,0,1,0.1,1.4,0.3c0.4,0.2,0.8,0.4,1.1,0.8c0.3,0.3,0.6,0.7,0.8,1.2s0.3,0.9,0.3,1.4s-0.1,1-0.3,1.4
		c-0.2,0.4-0.4,0.8-0.8,1.2c-0.3,0.3-0.7,0.6-1.2,0.7s-0.9,0.3-1.4,0.3C227.6,56.8,226.4,56.6,225.2,56.1z"/>
	<path class="st0" d="M243.6,56.1c-1.6-0.7-3-1.6-4.2-2.8s-2.2-2.6-2.8-4.2c-0.7-1.6-1-3.2-1-5V33.9c0-0.5,0.1-1,0.3-1.4
		c0.2-0.4,0.5-0.8,0.8-1.2s0.7-0.6,1.2-0.8c0.4-0.2,0.9-0.3,1.4-0.3c0.5,0,1,0.1,1.4,0.3c0.4,0.2,0.8,0.5,1.2,0.8
		c0.3,0.3,0.6,0.7,0.8,1.2c0.2,0.4,0.3,0.9,0.3,1.4v10.3c0,0.8,0.1,1.6,0.4,2.2c0.3,0.7,0.7,1.3,1.2,1.8c0.5,0.5,1.1,0.9,1.8,1.2
		c0.7,0.3,1.4,0.4,2.3,0.4c0.8,0,1.5-0.1,2.1-0.4c0.6-0.3,1.2-0.7,1.7-1.2c0.4-0.5,0.8-1.1,1-1.8c0.2-0.7,0.4-1.4,0.4-2.3V33.9
		c0-0.5,0.1-0.9,0.3-1.4c0.2-0.4,0.5-0.8,0.8-1.2c0.3-0.3,0.7-0.6,1.2-0.8c0.5-0.2,0.9-0.3,1.4-0.3c0.5,0,1,0.1,1.4,0.3
		c0.4,0.2,0.8,0.5,1.2,0.8c0.3,0.3,0.6,0.7,0.8,1.2c0.2,0.4,0.3,0.9,0.3,1.4v10.2c0,1.8-0.3,3.5-0.9,5c-0.6,1.6-1.5,3-2.6,4.2
		c-1.1,1.2-2.5,2.2-4,2.8c-1.5,0.7-3.2,1-4.9,1C246.8,57.1,245.2,56.8,243.6,56.1z"/>
	<path class="st0" d="M274.3,56.1c-1.6-0.7-3.1-1.7-4.3-2.9c-1.2-1.2-2.2-2.7-2.9-4.3c-0.7-1.6-1-3.4-1-5.2V24.2
		c0-0.5,0.1-1,0.3-1.5s0.5-0.9,0.8-1.2c0.3-0.3,0.7-0.6,1.2-0.8c0.5-0.2,0.9-0.3,1.4-0.3c0.5,0,1,0.1,1.4,0.3
		c0.5,0.2,0.9,0.5,1.2,0.8c0.3,0.3,0.6,0.8,0.8,1.2s0.3,1,0.3,1.5v8.4c0.6-0.7,1.5-1.3,2.7-1.7c1.2-0.5,2.3-0.7,3.4-0.7
		c1.8,0,3.5,0.3,5.2,1c1.6,0.7,3.1,1.7,4.3,2.9c1.2,1.2,2.2,2.7,2.9,4.3c0.7,1.6,1,3.4,1,5.2c0,1.8-0.3,3.5-1,5.2
		c-0.7,1.6-1.7,3.1-2.9,4.3c-1.2,1.2-2.7,2.2-4.3,2.9c-1.6,0.7-3.4,1-5.2,1C277.6,57.1,275.9,56.8,274.3,56.1z M281.8,49.3
		c0.7-0.3,1.4-0.7,1.9-1.3c0.6-0.6,1-1.2,1.3-2c0.3-0.7,0.5-1.5,0.5-2.3c0-0.8-0.2-1.6-0.5-2.3c-0.3-0.7-0.8-1.4-1.3-2
		c-0.6-0.6-1.2-1-1.9-1.3c-0.7-0.3-1.5-0.5-2.4-0.5c-0.8,0-1.6,0.2-2.4,0.5c-0.7,0.3-1.4,0.7-1.9,1.3c-0.6,0.6-1,1.2-1.3,2
		c-0.3,0.7-0.5,1.5-0.5,2.3c0,0.8,0.2,1.6,0.5,2.3c0.3,0.7,0.8,1.4,1.3,2c0.6,0.6,1.2,1,1.9,1.3c0.7,0.3,1.5,0.5,2.4,0.5
		C280.3,49.8,281.1,49.6,281.8,49.3z"/>
	<path class="st0" d="M74.6,44.2v8.9c0,0.5-0.1,1-0.3,1.4c-0.2,0.4-0.4,0.8-0.8,1.1c-0.7,0.7-1.5,1-2.5,1c-0.5,0-1-0.1-1.4-0.3
		c-0.5-0.2-0.9-0.4-1.2-0.8c-0.3-0.3-0.6-0.7-0.8-1.2c-0.2-0.4-0.3-0.9-0.3-1.4v-9.2"/>
</g>
</svg>
